﻿[
  {
    "offers": [
      {
        "type": "Tickets",
        "url": "https://www.bandsintown.com/t/6632837?app_id=11&came_from=267&utm_medium=api&utm_source=public_api&utm_campaign=ticket",
        "status": "available"
      }
    ],
    "venue": {
      "name": "Pukkelpop Festival",
      "country": "Belgium",
      "region": "",
      "city": "Hasselt",
      "latitude": "50.9333333",
      "longitude": "5.3333333"
    },
    "datetime": "2013-08-15T12:00:00",
    "artist": {
      "thumb_url": "https://photos.bandsintown.com/thumb/8285304.jpeg",
      "mbid": "b95ce3ff-3d05-4e87-9e01-c97b66af13d4",
      "support_url": "",
      "facebook_page_url": "http://www.facebook.com/45309870078",
      "image_url": "https://photos.bandsintown.com/large/8285304.jpeg",
      "name": "Eminem",
      "options": {
        "display_listen_unit": false
      },
      "id": "1754",
      "tracker_count": 7529376.0,
      "upcoming_event_count": 0.0,
      "url": "https://www.bandsintown.com/a/1754?came_from=267&app_id=11"
    },
    "on_sale_datetime": "",
    "description": "",
    "lineup": [
      "Eminem"
    ],
    "id": "6632837",
    "title": "",
    "artist_id": "1754",
    "url": "https://www.bandsintown.com/e/6632837?app_id=11&came_from=267&utm_medium=api&utm_source=public_api&utm_campaign=event"
  },
  {
    "offers": [],
    "venue": {
      "name": "SLANE CASTLE",
      "country": "Ireland",
      "region": "",
      "city": "Co. Meath",
      "latitude": "53.7103296",
      "longitude": "-6.5589559"
    },
    "datetime": "2013-08-17T15:00:00",
    "on_sale_datetime": "",
    "description": "",
    "lineup": [
      "Eminem"
    ],
    "id": "5953467",
    "title": "",
    "artist_id": "1754",
    "url": "https://www.bandsintown.com/e/5953467?app_id=11&came_from=267&utm_medium=api&utm_source=public_api&utm_campaign=event"
  },
  {
    "offers": [],
    "venue": {
      "name": "Bellahouston Park",
      "country": "United Kingdom",
      "region": "",
      "city": "Glasgow",
      "latitude": "55.853771",
      "longitude": "-4.279181"
    },
    "datetime": "2013-08-20T16:00:00",
    "on_sale_datetime": "",
    "description": "",
    "lineup": [
      "Eminem"
    ],
    "id": "6188068",
    "title": "",
    "artist_id": "1754",
    "url": "https://www.bandsintown.com/e/6188068?app_id=11&came_from=267&utm_medium=api&utm_source=public_api&utm_campaign=event"
  },
  {
    "offers": [
      {
        "type": "Tickets",
        "url": "https://www.bandsintown.com/t/6146203?app_id=11&came_from=267&utm_medium=api&utm_source=public_api&utm_campaign=ticket",
        "status": "available"
      }
    ],
    "venue": {
      "name": "STADE DE FRANCE",
      "country": "France",
      "region": "",
      "city": "Saint Denis",
      "latitude": "48.937299",
      "longitude": "2.366302"
    },
    "datetime": "2013-08-22T19:30:00",
    "on_sale_datetime": "",
    "description": "",
    "lineup": [
      "Eminem"
    ],
    "id": "6146203",
    "title": "",
    "artist_id": "1754",
    "url": "https://www.bandsintown.com/e/6146203?app_id=11&came_from=267&utm_medium=api&utm_source=public_api&utm_campaign=event"
  },
  {
    "offers": [
      {
        "type": "Tickets",
        "url": "https://www.bandsintown.com/t/6632933?app_id=11&came_from=267&utm_medium=api&utm_source=public_api&utm_campaign=ticket",
        "status": "available"
      }
    ],
    "venue": {
      "name": "Reading Festival",
      "country": "United Kingdom",
      "region": "",
      "city": "Reading",
      "latitude": "51.464404",
      "longitude": "-0.982444"
    },
    "datetime": "2013-08-24T12:00:00",
    "on_sale_datetime": "",
    "description": "",
    "lineup": [
      "Eminem"
    ],
    "id": "6632933",
    "title": "",
    "artist_id": "1754",
    "url": "https://www.bandsintown.com/e/6632933?app_id=11&came_from=267&utm_medium=api&utm_source=public_api&utm_campaign=event"
  },
  {
    "offers": [
      {
        "type": "Tickets",
        "url": "https://www.bandsintown.com/t/6633081?app_id=11&came_from=267&utm_medium=api&utm_source=public_api&utm_campaign=ticket",
        "status": "available"
      }
    ],
    "venue": {
      "name": "Leeds Festival ",
      "country": "United Kingdom",
      "region": "",
      "city": "Leeds",
      "latitude": "53.8",
      "longitude": "-1.5833333"
    },
    "datetime": "2013-08-25T12:00:00",
    "on_sale_datetime": "",
    "description": "",
    "lineup": [
      "Eminem"
    ],
    "id": "6633081",
    "title": "",
    "artist_id": "1754",
    "url": "https://www.bandsintown.com/e/6633081?app_id=11&came_from=267&utm_medium=api&utm_source=public_api&utm_campaign=event"
  },
  {
    "offers": [
      {
        "type": "Tickets",
        "url": "https://www.bandsintown.com/t/7879606?app_id=11&came_from=267&utm_medium=api&utm_source=public_api&utm_campaign=ticket",
        "status": "available"
      }
    ],
    "venue": {
      "name": "Western Springs",
      "country": "New Zealand",
      "region": "",
      "city": "Auckland",
      "latitude": "-36.8677483",
      "longitude": "174.7232361"
    },
    "datetime": "2014-02-15T20:00:00",
    "on_sale_datetime": "",
    "description": "",
    "lineup": [
      "Eminem"
    ],
    "id": "7879606",
    "title": "",
    "artist_id": "1754",
    "url": "https://www.bandsintown.com/e/7879606?app_id=11&came_from=267&utm_medium=api&utm_source=public_api&utm_campaign=event"
  },
  {
    "offers": [
      {
        "type": "Tickets",
        "url": "https://www.bandsintown.com/t/7879613?app_id=11&came_from=267&utm_medium=api&utm_source=public_api&utm_campaign=ticket",
        "status": "available"
      }
    ],
    "venue": {
      "name": "Etihad Stadium",
      "country": "Australia",
      "region": "",
      "city": "Docklands",
      "latitude": "-37.816518",
      "longitude": "144.94554"
    },
    "datetime": "2014-02-19T20:00:00",
    "on_sale_datetime": "",
    "description": "",
    "lineup": [
      "Eminem"
    ],
    "id": "7879613",
    "title": "",
    "artist_id": "1754",
    "url": "https://www.bandsintown.com/e/7879613?app_id=11&came_from=267&utm_medium=api&utm_source=public_api&utm_campaign=event"
  },
  {
    "offers": [
      {
        "type": "Tickets",
        "url": "https://www.bandsintown.com/t/7879623?app_id=11&came_from=267&utm_medium=api&utm_source=public_api&utm_campaign=ticket",
        "status": "available"
      }
    ],
    "venue": {
      "name": "Suncorp Stadium",
      "country": "Australia",
      "region": "",
      "city": "Milton Qld",
      "latitude": "-27.46694",
      "longitude": "153.008728"
    },
    "datetime": "2014-02-20T20:00:00",
    "on_sale_datetime": "",
    "description": "",
    "lineup": [
      "Eminem"
    ],
    "id": "7879623",
    "title": "",
    "artist_id": "1754",
    "url": "https://www.bandsintown.com/e/7879623?app_id=11&came_from=267&utm_medium=api&utm_source=public_api&utm_campaign=event"
  },
  {
    "offers": [
      {
        "type": "Tickets",
        "url": "https://www.bandsintown.com/t/7879633?app_id=11&came_from=267&utm_medium=api&utm_source=public_api&utm_campaign=ticket",
        "status": "available"
      }
    ],
    "venue": {
      "name": "ANZ Stadium",
      "country": "Australia",
      "region": "",
      "city": "Sydney Olympic Park",
      "latitude": "-33.8393021",
      "longitude": "151.20578"
    },
    "datetime": "2014-02-22T20:00:00",
    "on_sale_datetime": "",
    "description": "",
    "lineup": [
      "Eminem"
    ],
    "id": "7879633",
    "title": "",
    "artist_id": "1754",
    "url": "https://www.bandsintown.com/e/7879633?app_id=11&came_from=267&utm_medium=api&utm_source=public_api&utm_campaign=event"
  },
  {
    "offers": [
      {
        "type": "Tickets",
        "url": "https://www.bandsintown.com/t/8115771?app_id=11&came_from=267&utm_medium=api&utm_source=public_api&utm_campaign=ticket",
        "status": "available"
      }
    ],
    "venue": {
      "name": "Cape Town Stadium",
      "country": "South Africa",
      "region": "",
      "city": "Cape Town",
      "latitude": "-33.9043999",
      "longitude": "18.4096947"
    },
    "datetime": "2014-02-26T19:00:00",
    "on_sale_datetime": "",
    "description": "",
    "lineup": [
      "Eminem"
    ],
    "id": "8115771",
    "title": "",
    "artist_id": "1754",
    "url": "https://www.bandsintown.com/e/8115771?app_id=11&came_from=267&utm_medium=api&utm_source=public_api&utm_campaign=event"
  },
  {
    "offers": [
      {
        "type": "Tickets",
        "url": "https://www.bandsintown.com/t/8115777?app_id=11&came_from=267&utm_medium=api&utm_source=public_api&utm_campaign=ticket",
        "status": "available"
      }
    ],
    "venue": {
      "name": "Ellis Park Stadium",
      "country": "South Africa",
      "region": "",
      "city": "Johannesburg",
      "latitude": "-26.1988106",
      "longitude": "28.0598698"
    },
    "datetime": "2014-03-01T19:00:00",
    "on_sale_datetime": "",
    "description": "",
    "lineup": [
      "Eminem"
    ],
    "id": "8115777",
    "title": "",
    "artist_id": "1754",
    "url": "https://www.bandsintown.com/e/8115777?app_id=11&came_from=267&utm_medium=api&utm_source=public_api&utm_campaign=event"
  },
  {
    "offers": [
      {
        "type": "Tickets",
        "url": "https://www.bandsintown.com/t/9245554?app_id=11&came_from=267&utm_medium=api&utm_source=public_api&utm_campaign=ticket",
        "status": "available"
      }
    ],
    "venue": {
      "name": "Wembley Stadium",
      "country": "United Kingdom",
      "region": "",
      "city": "London",
      "latitude": "51.5",
      "longitude": "-0.1166667"
    },
    "datetime": "2014-07-11T19:00:00",
    "on_sale_datetime": "",
    "description": "",
    "lineup": [
      "Eminem"
    ],
    "id": "9245554",
    "title": "",
    "artist_id": "1754",
    "url": "https://www.bandsintown.com/e/9245554?app_id=11&came_from=267&utm_medium=api&utm_source=public_api&utm_campaign=event"
  },
  {
    "offers": [],
    "venue": {
      "name": "Wembley Stadium",
      "country": "United Kingdom",
      "region": "",
      "city": "London",
      "latitude": "51.556711",
      "longitude": "-0.279678"
    },
    "datetime": "2014-07-12T17:00:00",
    "on_sale_datetime": "",
    "description": "",
    "lineup": [
      "Eminem"
    ],
    "id": "9606752",
    "title": "",
    "artist_id": "1754",
    "url": "https://www.bandsintown.com/e/9606752?app_id=11&came_from=267&utm_medium=api&utm_source=public_api&utm_campaign=event"
  },
  {
    "offers": [
      {
        "type": "Tickets",
        "url": "https://www.bandsintown.com/t/8941962?app_id=11&came_from=267&utm_medium=api&utm_source=public_api&utm_campaign=ticket",
        "status": "available"
      }
    ],
    "venue": {
      "name": "Lollapalooza",
      "country": "United States",
      "region": "IL",
      "city": "Chicago",
      "latitude": "41.875778",
      "longitude": "-87.620239"
    },
    "datetime": "2014-08-01T19:00:00",
    "on_sale_datetime": "",
    "description": "Lollapalooza",
    "lineup": [
      "Eminem"
    ],
    "id": "8941962",
    "title": "",
    "artist_id": "1754",
    "url": "https://www.bandsintown.com/e/8941962?app_id=11&came_from=267&utm_medium=api&utm_source=public_api&utm_campaign=event"
  },
  {
    "offers": [
      {
        "type": "Tickets",
        "url": "https://www.bandsintown.com/t/9236727?app_id=11&came_from=267&utm_medium=api&utm_source=public_api&utm_campaign=ticket",
        "status": "available"
      }
    ],
    "venue": {
      "name": "Rose Bowl",
      "country": "United States",
      "region": "CA",
      "city": "Pasadena",
      "latitude": "34.1614651",
      "longitude": "-118.1675131"
    },
    "datetime": "2014-08-07T19:00:00",
    "on_sale_datetime": "",
    "description": "",
    "lineup": [
      "Eminem"
    ],
    "id": "9236727",
    "title": "",
    "artist_id": "1754",
    "url": "https://www.bandsintown.com/e/9236727?app_id=11&came_from=267&utm_medium=api&utm_source=public_api&utm_campaign=event"
  },
  {
    "offers": [],
    "venue": {
      "name": "Rose Bowl",
      "country": "United States",
      "region": "CA",
      "city": "Pasadena",
      "latitude": "34.1614651",
      "longitude": "-118.1675131"
    },
    "datetime": "2014-08-08T19:30:00",
    "on_sale_datetime": "",
    "description": "",
    "lineup": [
      "Eminem"
    ],
    "id": "9153433",
    "title": "",
    "artist_id": "1754",
    "url": "https://www.bandsintown.com/e/9153433?app_id=11&came_from=267&utm_medium=api&utm_source=public_api&utm_campaign=event"
  },
  {
    "offers": [
      {
        "type": "Tickets",
        "url": "https://www.bandsintown.com/t/8722871?app_id=11&came_from=267&utm_medium=api&utm_source=public_api&utm_campaign=ticket",
        "status": "available"
      }
    ],
    "venue": {
      "name": "Loggers Sports Grounds",
      "country": "Canada",
      "region": "BC",
      "city": "Squamish",
      "latitude": "49.71829",
      "longitude": "-123.141529"
    },
    "datetime": "2014-08-10T19:00:00",
    "on_sale_datetime": "",
    "description": "",
    "lineup": [
      "Eminem"
    ],
    "id": "8722871",
    "title": "",
    "artist_id": "1754",
    "url": "https://www.bandsintown.com/e/8722871?app_id=11&came_from=267&utm_medium=api&utm_source=public_api&utm_campaign=event"
  },
  {
    "offers": [
      {
        "type": "Tickets",
        "url": "https://www.bandsintown.com/t/9236732?app_id=11&came_from=267&utm_medium=api&utm_source=public_api&utm_campaign=ticket",
        "status": "available"
      }
    ],
    "venue": {
      "name": "MetLife Stadium",
      "country": "United States",
      "region": "NJ",
      "city": "East Rutherford",
      "latitude": "40.8142092",
      "longitude": "-74.0736902"
    },
    "datetime": "2014-08-16T19:00:00",
    "on_sale_datetime": "",
    "description": "",
    "lineup": [
      "Eminem"
    ],
    "id": "9236732",
    "title": "",
    "artist_id": "1754",
    "url": "https://www.bandsintown.com/e/9236732?app_id=11&came_from=267&utm_medium=api&utm_source=public_api&utm_campaign=event"
  },
  {
    "offers": [],
    "venue": {
      "name": "MetLife Stadium",
      "country": "United States",
      "region": "NJ",
      "city": "East Rutherford",
      "latitude": "40.8142092",
      "longitude": "-74.0736902"
    },
    "datetime": "2014-08-17T19:30:00",
    "on_sale_datetime": "",
    "description": "",
    "lineup": [
      "Eminem"
    ],
    "id": "9153437",
    "title": "",
    "artist_id": "1754",
    "url": "https://www.bandsintown.com/e/9153437?app_id=11&came_from=267&utm_medium=api&utm_source=public_api&utm_campaign=event"
  },
  {
    "offers": [],
    "venue": {
      "name": "Piedmont Park",
      "country": "United States",
      "region": "GA",
      "city": "Atlanta",
      "latitude": "33.7842414",
      "longitude": "-84.3639749"
    },
    "datetime": "2014-08-20T19:00:00",
    "on_sale_datetime": "",
    "description": "",
    "lineup": [
      "Eminem"
    ],
    "id": "22435425",
    "title": "",
    "artist_id": "1754",
    "url": "https://www.bandsintown.com/e/22435425?app_id=11&came_from=267&utm_medium=api&utm_source=public_api&utm_campaign=event"
  },
  {
    "offers": [
      {
        "type": "Tickets",
        "url": "https://www.bandsintown.com/t/8885263?app_id=11&came_from=267&utm_medium=api&utm_source=public_api&utm_campaign=ticket",
        "status": "available"
      }
    ],
    "venue": {
      "name": "Comerica Park",
      "country": "United States",
      "region": "MI",
      "city": "Detroit",
      "latitude": "42.337777",
      "longitude": "-83.051302"
    },
    "datetime": "2014-08-22T19:00:00",
    "on_sale_datetime": "",
    "description": "",
    "lineup": [
      "Eminem"
    ],
    "id": "8885263",
    "title": "",
    "artist_id": "1754",
    "url": "https://www.bandsintown.com/e/8885263?app_id=11&came_from=267&utm_medium=api&utm_source=public_api&utm_campaign=event"
  },
  {
    "offers": [],
    "venue": {
      "name": "Comerica Park",
      "country": "United States",
      "region": "MI",
      "city": "Detroit",
      "latitude": "42.337777",
      "longitude": "-83.051302"
    },
    "datetime": "2014-08-23T19:30:00",
    "on_sale_datetime": "",
    "description": "",
    "lineup": [
      "Eminem"
    ],
    "id": "9153444",
    "title": "",
    "artist_id": "1754",
    "url": "https://www.bandsintown.com/e/9153444?app_id=11&came_from=267&utm_medium=api&utm_source=public_api&utm_campaign=event"
  },
  {
    "offers": [
      {
        "type": "Tickets",
        "url": "https://www.bandsintown.com/t/9606769?app_id=11&came_from=267&utm_medium=api&utm_source=public_api&utm_campaign=ticket",
        "status": "available"
      }
    ],
    "venue": {
      "name": "Piedmont Park",
      "country": "United States",
      "region": "GA",
      "city": "Atlanta",
      "latitude": "33.7842414",
      "longitude": "-84.3639749"
    },
    "datetime": "2014-09-20T11:00:00",
    "on_sale_datetime": "",
    "description": "",
    "lineup": [
      "Eminem"
    ],
    "id": "9606769",
    "title": "",
    "artist_id": "1754",
    "url": "https://www.bandsintown.com/e/9606769?app_id=11&came_from=267&utm_medium=api&utm_source=public_api&utm_campaign=event"
  },
  {
    "offers": [
      {
        "type": "Tickets",
        "url": "https://www.bandsintown.com/t/9809624?app_id=11&came_from=267&utm_medium=api&utm_source=public_api&utm_campaign=ticket",
        "status": "available"
      }
    ],
    "venue": {
      "name": "Zilker Park",
      "country": "United States",
      "region": "TX",
      "city": "Austin",
      "latitude": "30.265664",
      "longitude": "-97.766076"
    },
    "datetime": "2014-10-04T11:00:00",
    "on_sale_datetime": "",
    "description": "",
    "lineup": [
      "Eminem"
    ],
    "id": "9809624",
    "title": "",
    "artist_id": "1754",
    "url": "https://www.bandsintown.com/e/9809624?app_id=11&came_from=267&utm_medium=api&utm_source=public_api&utm_campaign=event"
  },
  {
    "offers": [
      {
        "type": "Tickets",
        "url": "https://www.bandsintown.com/t/9809626?app_id=11&came_from=267&utm_medium=api&utm_source=public_api&utm_campaign=ticket",
        "status": "available"
      }
    ],
    "venue": {
      "name": "Zilker Park",
      "country": "United States",
      "region": "TX",
      "city": "Austin",
      "latitude": "30.265664",
      "longitude": "-97.766076"
    },
    "datetime": "2014-10-11T11:00:00",
    "on_sale_datetime": "",
    "description": "",
    "lineup": [
      "Eminem"
    ],
    "id": "9809626",
    "title": "",
    "artist_id": "1754",
    "url": "https://www.bandsintown.com/e/9809626?app_id=11&came_from=267&utm_medium=api&utm_source=public_api&utm_campaign=event"
  },
  {
    "offers": [
      {
        "type": "Tickets",
        "url": "https://www.bandsintown.com/t/14344331?app_id=11&came_from=267&utm_medium=api&utm_source=public_api&utm_campaign=ticket",
        "status": "available"
      }
    ],
    "venue": {
      "name": "Lollapalooza",
      "country": "Brazil",
      "region": "",
      "city": "Sao Paulo",
      "latitude": "-23.701126",
      "longitude": "-46.697997"
    },
    "datetime": "2016-03-12T19:00:00",
    "on_sale_datetime": "",
    "description": "",
    "lineup": [
      "Eminem"
    ],
    "id": "14344331",
    "title": "",
    "artist_id": "1754",
    "url": "https://www.bandsintown.com/e/14344331?app_id=11&came_from=267&utm_medium=api&utm_source=public_api&utm_campaign=event"
  },
  {
    "offers": [
      {
        "type": "Tickets",
        "url": "https://www.bandsintown.com/t/14344342?app_id=11&came_from=267&utm_medium=api&utm_source=public_api&utm_campaign=ticket",
        "status": "available"
      }
    ],
    "venue": {
      "name": "Lollapalooza",
      "country": "Argentina",
      "region": "",
      "city": "Buenos Aires",
      "latitude": "-34.5875",
      "longitude": "-58.6725"
    },
    "datetime": "2016-03-18T19:00:00",
    "on_sale_datetime": "",
    "description": "",
    "lineup": [
      "Eminem"
    ],
    "id": "14344342",
    "title": "",
    "artist_id": "1754",
    "url": "https://www.bandsintown.com/e/14344342?app_id=11&came_from=267&utm_medium=api&utm_source=public_api&utm_campaign=event"
  },
  {
    "offers": [
      {
        "type": "Tickets",
        "url": "https://www.bandsintown.com/t/14344348?app_id=11&came_from=267&utm_medium=api&utm_source=public_api&utm_campaign=ticket",
        "status": "available"
      }
    ],
    "venue": {
      "name": "Lollapalooza",
      "country": "Chile",
      "region": "",
      "city": "Santiago",
      "latitude": "-33.45",
      "longitude": "-70.6666667"
    },
    "datetime": "2016-03-19T19:00:00",
    "on_sale_datetime": "",
    "description": "",
    "lineup": [
      "Eminem"
    ],
    "id": "14344348",
    "title": "",
    "artist_id": "1754",
    "url": "https://www.bandsintown.com/e/14344348?app_id=11&came_from=267&utm_medium=api&utm_source=public_api&utm_campaign=event"
  },
  {
    "offers": [
      {
        "type": "Tickets",
        "url": "https://www.bandsintown.com/t/17855456?app_id=11&came_from=267&utm_medium=api&utm_source=public_api&utm_campaign=ticket",
        "status": "available"
      }
    ],
    "venue": {
      "name": "Reading Festival 2017",
      "country": "United Kingdom",
      "region": "",
      "city": "Reading",
      "latitude": "51.464404",
      "longitude": "-0.982444"
    },
    "datetime": "2017-08-24T12:00:00",
    "on_sale_datetime": "",
    "description": "",
    "lineup": [
      "Eminem"
    ],
    "id": "17855456",
    "title": "",
    "artist_id": "1754",
    "url": "https://www.bandsintown.com/e/17855456?app_id=11&came_from=267&utm_medium=api&utm_source=public_api&utm_campaign=event"
  },
  {
    "offers": [
      {
        "type": "Tickets",
        "url": "https://www.bandsintown.com/t/17868628?app_id=11&came_from=267&utm_medium=api&utm_source=public_api&utm_campaign=ticket",
        "status": "available"
      }
    ],
    "venue": {
      "name": "Glasgow Summer Sessions",
      "country": "United Kingdom",
      "region": "",
      "city": "Glasgow",
      "latitude": "55.853771",
      "longitude": "-4.279181"
    },
    "datetime": "2017-08-24T13:00:00",
    "on_sale_datetime": "",
    "description": "",
    "lineup": [
      "Eminem"
    ],
    "id": "17868628",
    "title": "",
    "artist_id": "1754",
    "url": "https://www.bandsintown.com/e/17868628?app_id=11&came_from=267&utm_medium=api&utm_source=public_api&utm_campaign=event"
  },
  {
    "offers": [],
    "venue": {
      "name": "Irving Plaza",
      "country": "United States",
      "region": "NY",
      "city": "New York",
      "latitude": "40.73482",
      "longitude": "-73.988313"
    },
    "datetime": "2018-01-26T19:00:00",
    "on_sale_datetime": "",
    "description": "",
    "lineup": [
      "Eminem"
    ],
    "id": "21308801",
    "title": "",
    "artist_id": "1754",
    "url": "https://www.bandsintown.com/e/21308801?app_id=11&came_from=267&utm_medium=api&utm_source=public_api&utm_campaign=event"
  },
  {
    "offers": [],
    "venue": {
      "name": "COACHELLA Stage",
      "country": "United States",
      "region": "CA",
      "city": "Indio",
      "latitude": "33.6826141",
      "longitude": "-116.2382135"
    },
    "datetime": "2018-04-15T13:00:00",
    "on_sale_datetime": "",
    "description": "",
    "lineup": [
      "Eminem"
    ],
    "id": "1008858797",
    "title": "",
    "artist_id": "1754",
    "url": "https://www.bandsintown.com/e/1008858797?app_id=11&came_from=267&utm_medium=api&utm_source=public_api&utm_campaign=event"
  },
  {
    "offers": [],
    "venue": {
      "name": "COACHELLA Stage",
      "country": "United States",
      "region": "CA",
      "city": "Indio",
      "latitude": "33.6826141",
      "longitude": "-116.2382135"
    },
    "datetime": "2018-04-22T22:15:00",
    "on_sale_datetime": "",
    "description": "",
    "lineup": [
      "Eminem"
    ],
    "id": "1005089473",
    "title": "",
    "artist_id": "1754",
    "url": "https://www.bandsintown.com/e/1005089473?app_id=11&came_from=267&utm_medium=api&utm_source=public_api&utm_campaign=event"
  },
  {
    "offers": [
      {
        "type": "Tickets",
        "url": "https://www.bandsintown.com/t/1005157148?app_id=11&came_from=267&utm_medium=api&utm_source=public_api&utm_campaign=ticket",
        "status": "available"
      }
    ],
    "venue": {
      "name": "Boston Calling",
      "country": "United States",
      "region": "MA",
      "city": "Boston",
      "latitude": "42.3583333",
      "longitude": "-71.0602778"
    },
    "datetime": "2018-05-27T19:00:00",
    "on_sale_datetime": "",
    "description": "",
    "lineup": [
      "Eminem"
    ],
    "id": "1005157148",
    "title": "",
    "artist_id": "1754",
    "url": "https://www.bandsintown.com/e/1005157148?app_id=11&came_from=267&utm_medium=api&utm_source=public_api&utm_campaign=event"
  },
  {
    "offers": [
      {
        "type": "Tickets",
        "url": "https://www.bandsintown.com/t/1005115034?app_id=11&came_from=267&utm_medium=api&utm_source=public_api&utm_campaign=ticket",
        "status": "available"
      }
    ],
    "venue": {
      "name": "The Governors Ball Music Festival",
      "country": "United States",
      "region": "NY",
      "city": "New York",
      "latitude": "40.7141667",
      "longitude": "-74.0063889"
    },
    "datetime": "2018-06-03T19:00:00",
    "on_sale_datetime": "",
    "description": "",
    "lineup": [
      "Eminem"
    ],
    "id": "1005115034",
    "title": "",
    "artist_id": "1754",
    "url": "https://www.bandsintown.com/e/1005115034?app_id=11&came_from=267&utm_medium=api&utm_source=public_api&utm_campaign=event"
  },
  {
    "offers": [
      {
        "type": "Tickets",
        "url": "https://www.bandsintown.com/t/1005302917?app_id=11&came_from=267&utm_medium=api&utm_source=public_api&utm_campaign=ticket",
        "status": "available"
      }
    ],
    "venue": {
      "name": "Bonnaroo",
      "country": "United States",
      "region": "TN",
      "city": "Manchester",
      "latitude": "35.4816667",
      "longitude": "-86.0886111"
    },
    "datetime": "2018-06-09T19:00:00",
    "on_sale_datetime": "",
    "description": "",
    "lineup": [
      "Eminem"
    ],
    "id": "1005302917",
    "title": "",
    "artist_id": "1754",
    "url": "https://www.bandsintown.com/e/1005302917?app_id=11&came_from=267&utm_medium=api&utm_source=public_api&utm_campaign=event"
  },
  {
    "offers": [
      {
        "type": "Tickets",
        "url": "https://www.bandsintown.com/t/1005973862?app_id=11&came_from=267&utm_medium=api&utm_source=public_api&utm_campaign=ticket",
        "status": "available"
      }
    ],
    "venue": {
      "name": "Firefly Music Festival",
      "country": "United States",
      "region": "DE",
      "city": "Dover",
      "latitude": "39.186967",
      "longitude": "-75.537214"
    },
    "datetime": "2018-06-16T19:00:00",
    "on_sale_datetime": "",
    "description": "",
    "lineup": [
      "Eminem"
    ],
    "id": "1005973862",
    "title": "",
    "artist_id": "1754",
    "url": "https://www.bandsintown.com/e/1005973862?app_id=11&came_from=267&utm_medium=api&utm_source=public_api&utm_campaign=event"
  },
  {
    "offers": [
      {
        "type": "Tickets",
        "url": "https://www.bandsintown.com/t/1006747210?app_id=11&came_from=267&utm_medium=api&utm_source=public_api&utm_campaign=ticket",
        "status": "available"
      }
    ],
    "venue": {
      "name": "Obos Oslo Sommertime Festival",
      "country": "Norway",
      "region": "",
      "city": "Oslo",
      "latitude": "59.9166667",
      "longitude": "10.75"
    },
    "datetime": "2018-06-30T19:00:00",
    "on_sale_datetime": "",
    "description": "",
    "lineup": [
      "Eminem"
    ],
    "id": "1006747210",
    "title": "",
    "artist_id": "1754",
    "url": "https://www.bandsintown.com/e/1006747210?app_id=11&came_from=267&utm_medium=api&utm_source=public_api&utm_campaign=event"
  },
  {
    "offers": [
      {
        "type": "Tickets",
        "url": "https://www.bandsintown.com/t/1006747216?app_id=11&came_from=267&utm_medium=api&utm_source=public_api&utm_campaign=ticket",
        "status": "available"
      }
    ],
    "venue": {
      "name": "Friends Arena",
      "country": "Sweden",
      "region": "",
      "city": "Stockholm",
      "latitude": "59.3333333",
      "longitude": "18.05"
    },
    "datetime": "2018-07-02T19:00:00",
    "on_sale_datetime": "",
    "description": "",
    "lineup": [
      "Eminem"
    ],
    "id": "1006747216",
    "title": "",
    "artist_id": "1754",
    "url": "https://www.bandsintown.com/e/1006747216?app_id=11&came_from=267&utm_medium=api&utm_source=public_api&utm_campaign=event"
  },
  {
    "offers": [
      {
        "type": "Tickets",
        "url": "https://www.bandsintown.com/t/1006747217?app_id=11&came_from=267&utm_medium=api&utm_source=public_api&utm_campaign=ticket",
        "status": "available"
      }
    ],
    "venue": {
      "name": "Roskilde Festival",
      "country": "Denmark",
      "region": "",
      "city": "Roskilde",
      "latitude": "55.630278",
      "longitude": "12.083631"
    },
    "datetime": "2018-07-04T19:00:00",
    "on_sale_datetime": "",
    "description": "",
    "lineup": [
      "Eminem"
    ],
    "id": "1006747217",
    "title": "",
    "artist_id": "1754",
    "url": "https://www.bandsintown.com/e/1006747217?app_id=11&came_from=267&utm_medium=api&utm_source=public_api&utm_campaign=event"
  },
  {
    "offers": [
      {
        "type": "Tickets",
        "url": "https://www.bandsintown.com/t/1006747219?app_id=11&came_from=267&utm_medium=api&utm_source=public_api&utm_campaign=ticket",
        "status": "available"
      }
    ],
    "venue": {
      "name": "Frauenfeld Open Air Festival",
      "country": "Switzerland",
      "region": "",
      "city": "Zurich",
      "latitude": "47.3666667",
      "longitude": "8.55"
    },
    "datetime": "2018-07-06T19:00:00",
    "on_sale_datetime": "",
    "description": "",
    "lineup": [
      "Eminem"
    ],
    "id": "1006747219",
    "title": "",
    "artist_id": "1754",
    "url": "https://www.bandsintown.com/e/1006747219?app_id=11&came_from=267&utm_medium=api&utm_source=public_api&utm_campaign=event"
  },
  {
    "offers": [
      {
        "type": "Tickets",
        "url": "https://www.bandsintown.com/t/1006747224?app_id=11&came_from=267&utm_medium=api&utm_source=public_api&utm_campaign=ticket",
        "status": "available"
      }
    ],
    "venue": {
      "name": "Experience Milano",
      "country": "Italy",
      "region": "",
      "city": "Milan",
      "latitude": "45.4612",
      "longitude": "9.1878"
    },
    "datetime": "2018-07-07T19:00:00",
    "on_sale_datetime": "",
    "description": "",
    "lineup": [
      "Eminem"
    ],
    "id": "1006747224",
    "title": "",
    "artist_id": "1754",
    "url": "https://www.bandsintown.com/e/1006747224?app_id=11&came_from=267&utm_medium=api&utm_source=public_api&utm_campaign=event"
  },
  {
    "offers": [
      {
        "type": "Tickets",
        "url": "https://www.bandsintown.com/t/1006747227?app_id=11&came_from=267&utm_medium=api&utm_source=public_api&utm_campaign=ticket",
        "status": "available"
      }
    ],
    "venue": {
      "name": "Hannover Messe",
      "country": "Germany",
      "region": "",
      "city": "Hannover",
      "latitude": "53.1833333",
      "longitude": "8.5166667"
    },
    "datetime": "2018-07-10T19:00:00",
    "on_sale_datetime": "",
    "description": "",
    "lineup": [
      "Eminem"
    ],
    "id": "1006747227",
    "title": "",
    "artist_id": "1754",
    "url": "https://www.bandsintown.com/e/1006747227?app_id=11&came_from=267&utm_medium=api&utm_source=public_api&utm_campaign=event"
  },
  {
    "offers": [
      {
        "type": "Tickets",
        "url": "https://www.bandsintown.com/t/1006747236?app_id=11&came_from=267&utm_medium=api&utm_source=public_api&utm_campaign=ticket",
        "status": "available"
      }
    ],
    "venue": {
      "name": "Goffertpark",
      "country": "Netherlands",
      "region": "",
      "city": "Nijmegen",
      "latitude": "51.8333333",
      "longitude": "5.8666667"
    },
    "datetime": "2018-07-12T19:00:00",
    "on_sale_datetime": "",
    "description": "",
    "lineup": [
      "Eminem"
    ],
    "id": "1006747236",
    "title": "",
    "artist_id": "1754",
    "url": "https://www.bandsintown.com/e/1006747236?app_id=11&came_from=267&utm_medium=api&utm_source=public_api&utm_campaign=event"
  },
  {
    "offers": [
      {
        "type": "Tickets",
        "url": "https://www.bandsintown.com/t/1006747241?app_id=11&came_from=267&utm_medium=api&utm_source=public_api&utm_campaign=ticket",
        "status": "available"
      }
    ],
    "venue": {
      "name": "Twickenham Stadium",
      "country": "United Kingdom",
      "region": "",
      "city": "London",
      "latitude": "51.4559357",
      "longitude": "-0.3415158000000247"
    },
    "datetime": "2018-07-14T19:00:00",
    "on_sale_datetime": "",
    "description": "",
    "lineup": [
      "Eminem"
    ],
    "id": "1006747241",
    "title": "",
    "artist_id": "1754",
    "url": "https://www.bandsintown.com/e/1006747241?app_id=11&came_from=267&utm_medium=api&utm_source=public_api&utm_campaign=event"
  },
  {
    "offers": [
      {
        "type": "Tickets",
        "url": "https://www.bandsintown.com/t/1006747242?app_id=11&came_from=267&utm_medium=api&utm_source=public_api&utm_campaign=ticket",
        "status": "available"
      }
    ],
    "venue": {
      "name": "Twickenham Stadium",
      "country": "United Kingdom",
      "region": "",
      "city": "London",
      "latitude": "51.4559357",
      "longitude": "-0.3415158000000247"
    },
    "datetime": "2018-07-15T19:00:00",
    "on_sale_datetime": "",
    "description": "",
    "lineup": [
      "Eminem"
    ],
    "id": "1006747242",
    "title": "",
    "artist_id": "1754",
    "url": "https://www.bandsintown.com/e/1006747242?app_id=11&came_from=267&utm_medium=api&utm_source=public_api&utm_campaign=event"
  },
  {
    "offers": [
      {
        "type": "Tickets",
        "url": "https://www.bandsintown.com/t/1013024928?app_id=11&came_from=267&utm_medium=api&utm_source=public_api&utm_campaign=ticket",
        "status": "available"
      }
    ],
    "venue": {
      "name": "Aloha Stadium",
      "country": "United States",
      "region": "HI",
      "city": "Aiea",
      "latitude": "21.386338",
      "longitude": "-157.9255357"
    },
    "datetime": "2019-02-15T19:30:00",
    "on_sale_datetime": "",
    "description": "",
    "lineup": [
      "Eminem"
    ],
    "id": "1013024928",
    "title": "",
    "artist_id": "1754",
    "url": "https://www.bandsintown.com/e/1013024928?app_id=11&came_from=267&utm_medium=api&utm_source=public_api&utm_campaign=event"
  },
  {
    "offers": [
      {
        "type": "Tickets",
        "url": "https://www.bandsintown.com/t/100783826?app_id=11&came_from=267&utm_medium=api&utm_source=public_api&utm_campaign=ticket",
        "status": "available"
      }
    ],
    "venue": {
      "name": "Queensland Sport and Athletics Centre",
      "country": "Australia",
      "region": "",
      "city": "Nathan",
      "latitude": "-27.55",
      "longitude": "153.05"
    },
    "datetime": "2019-02-20T19:00:58",
    "on_sale_datetime": "",
    "description": "",
    "lineup": [
      "Eminem"
    ],
    "id": "100783826",
    "title": "",
    "artist_id": "1754",
    "url": "https://www.bandsintown.com/e/100783826?app_id=11&came_from=267&utm_medium=api&utm_source=public_api&utm_campaign=event"
  },
  {
    "offers": [
      {
        "type": "Tickets",
        "url": "https://www.bandsintown.com/t/100783829?app_id=11&came_from=267&utm_medium=api&utm_source=public_api&utm_campaign=ticket",
        "status": "available"
      }
    ],
    "venue": {
      "name": "ANZ Stadium",
      "country": "Australia",
      "region": "",
      "city": "Sydney Olympic Park",
      "latitude": "-33.8471156",
      "longitude": "151.0634135"
    },
    "datetime": "2019-02-22T19:00:56",
    "on_sale_datetime": "",
    "description": "",
    "lineup": [
      "Eminem"
    ],
    "id": "100783829",
    "title": "",
    "artist_id": "1754",
    "url": "https://www.bandsintown.com/e/100783829?app_id=11&came_from=267&utm_medium=api&utm_source=public_api&utm_campaign=event"
  },
  {
    "offers": [
      {
        "type": "Tickets",
        "url": "https://www.bandsintown.com/t/100783830?app_id=11&came_from=267&utm_medium=api&utm_source=public_api&utm_campaign=ticket",
        "status": "available"
      }
    ],
    "venue": {
      "name": "Melbourne Cricket Ground",
      "country": "Australia",
      "region": "",
      "city": "East Melbourne",
      "latitude": "-37.8192852",
      "longitude": "144.9824632"
    },
    "datetime": "2019-02-24T19:00:40",
    "on_sale_datetime": "",
    "description": "",
    "lineup": [
      "Eminem"
    ],
    "id": "100783830",
    "title": "",
    "artist_id": "1754",
    "url": "https://www.bandsintown.com/e/100783830?app_id=11&came_from=267&utm_medium=api&utm_source=public_api&utm_campaign=event"
  },
  {
    "offers": [
      {
        "type": "Tickets",
        "url": "https://www.bandsintown.com/t/100783831?app_id=11&came_from=267&utm_medium=api&utm_source=public_api&utm_campaign=ticket",
        "status": "available"
      }
    ],
    "venue": {
      "name": "Optus Stadium",
      "country": "Australia",
      "region": "",
      "city": "Burswood",
      "latitude": "-31.96299999999999",
      "longitude": "115.895"
    },
    "datetime": "2019-02-27T19:00:39",
    "on_sale_datetime": "",
    "description": "",
    "lineup": [
      "Eminem"
    ],
    "id": "100783831",
    "title": "",
    "artist_id": "1754",
    "url": "https://www.bandsintown.com/e/100783831?app_id=11&came_from=267&utm_medium=api&utm_source=public_api&utm_campaign=event"
  },
  {
    "offers": [
      {
        "type": "Tickets",
        "url": "https://www.bandsintown.com/t/100783834?app_id=11&came_from=267&utm_medium=api&utm_source=public_api&utm_campaign=ticket",
        "status": "available"
      }
    ],
    "venue": {
      "name": "Westpac Stadium",
      "country": "New Zealand",
      "region": "",
      "city": "Wellington",
      "latitude": "-41.27292180000001",
      "longitude": "174.7859154"
    },
    "datetime": "2019-03-02T19:00:50",
    "on_sale_datetime": "",
    "description": "",
    "lineup": [
      "Eminem"
    ],
    "id": "100783834",
    "title": "",
    "artist_id": "1754",
    "url": "https://www.bandsintown.com/e/100783834?app_id=11&came_from=267&utm_medium=api&utm_source=public_api&utm_campaign=event"
  },
  {
    "offers": [
      {
        "type": "Tickets",
        "url": "https://www.bandsintown.com/t/1015536802?app_id=11&came_from=267&utm_medium=api&utm_source=public_api&utm_campaign=ticket",
        "status": "available"
      }
    ],
    "venue": {
      "name": "Du Arena",
      "country": "United Arab Emirates",
      "region": "",
      "city": "Abu Dhabi",
      "latitude": "24.4666667",
      "longitude": "54.3666667"
    },
    "datetime": "2019-10-25T19:00:00",
    "on_sale_datetime": "",
    "description": "",
    "lineup": [
      "Eminem"
    ],
    "id": "1015536802",
    "title": "",
    "artist_id": "1754",
    "url": "https://www.bandsintown.com/e/1015536802?app_id=11&came_from=267&utm_medium=api&utm_source=public_api&utm_campaign=event"
  }
]